{
  "project_info": {
    "project_number": "28498604618",
    "firebase_url": "https://fir-mvvm-77fa6.firebaseio.com",
    "project_id": "fir-mvvm-77fa6",
    "storage_bucket": "fir-mvvm-77fa6.appspot.com"
  },
  "client": [
    {
      "client_info": {
        "mobilesdk_app_id": "1:28498604618:android:3192521efbabb97f10ecb3",
        "android_client_info": {
          "package_name": "com.example.mvvmfirebase"
        }
      },
      "oauth_client": [
        {
          "client_id": "28498604618-61s16e0q2hku9hbe4dg77j2i90fd4488.apps.googleusercontent.com",
          "client_type": 1,
          "android_info": {
            "package_name": "com.example.mvvmfirebase",
            "certificate_hash": "4d42848cd50b690ce41e97d444adfe4e643962f9"
          }
        },
        {
          "client_id": "28498604618-3f6onfth3auos6iuopm76acaa5r75lgq.apps.googleusercontent.com",
          "client_type": 3
        }
      ],
      "api_key": [
        {
          "current_key": "AIzaSyC8oC45jTI0kOYzadmQ2Gv9R5YnR3b12KE"
        }
      ],
      "services": {
        "appinvite_service": {
          "other_platform_oauth_client": [
            {
              "client_id": "28498604618-3f6onfth3auos6iuopm76acaa5r75lgq.apps.googleusercontent.com",
              "client_type": 3
            }
          ]
        }
      }
    },
    {
      "client_info": {
        "mobilesdk_app_id": "1:28498604618:android:a2652b07bb14718810ecb3",
        "android_client_info": {
          "package_name": "com.example.mvvmfirebaselogin"
        }
      },
      "oauth_client": [
        {
          "client_id": "28498604618-vriqf0evo8rrc1e0m2g9ebr8portt68p.apps.googleusercontent.com",
          "client_type": 1,
          "android_info": {
            "package_name": "com.example.mvvmfirebaselogin",
            "certificate_hash": "4d42848cd50b690ce41e97d444adfe4e643962f9"
          }
        },
        {
          "client_id": "28498604618-3f6onfth3auos6iuopm76acaa5r75lgq.apps.googleusercontent.com",
          "client_type": 3
        }
      ],
      "api_key": [
        {
          "current_key": "AIzaSyC8oC45jTI0kOYzadmQ2Gv9R5YnR3b12KE"
        }
      ],
      "services": {
        "appinvite_service": {
          "other_platform_oauth_client": [
            {
              "client_id": "28498604618-3f6onfth3auos6iuopm76acaa5r75lgq.apps.googleusercontent.com",
              "client_type": 3
            }
          ]
        }
      }
    }
  ],
  "configuration_version": "1"
}